version="0.01"
tags={
	"Alternative History"
	"National Focuses"
	"Events"
	"Map"
}
name="A.E.I.O.U. 1886 Remaster"
replace_path="common/abilities"
replace_path="common/ai_equipment"
replace_path="common/ai_focuses"
replace_path="common/ai_strategy"
replace_path="common/ai_strategy_plans"
replace_path="common/ai_templates"
replace_path="common/autonomous_states"
replace_path="common/bookmarks"
replace_path="common/bop"
replace_path="common/buildings"
replace_path="common/characters"
replace_path="common/countries"
replace_path="common/country_leader"
replace_path="common/country_tag_aliases"
replace_path="common/country_tags"
replace_path="common/decisions"
replace_path="common/decisions/categories"
replace_path="common/difficulty_settings"
replace_path="common/dynamic_modifiers"
replace_path="common/ideas"
replace_path="common/military_industrial_organization/organizations"
replace_path="common/military_industrial_organization/ai_bonus_weights"
replace_path="common/military_industrial_organization/policies"
replace_path="common/modifiers"
replace_path="common/national_focus"
replace_path="common/on_actions"
replace_path="common/operations"
replace_path="common/opinion_modifiers"
replace_path="common/peace_conference"
replace_path="common/peace_conference/ai_peace"
replace_path="common/peace_conference/cost_modifiers"
replace_path="common/scorers/country"
replace_path="common/scripted_effects"
replace_path="common/scripted_guis"
replace_path="common/scripted_localisation"
replace_path="common/scripted_triggers"
replace_path="common/technologies"
replace_path="common/technology_sharing"
replace_path="common/unit_leader"
replace_path="common/units"
replace_path="common/units/names"
replace_path="common/units/names_divisions"
replace_path="common/units/names_ships"
replace_path="common/units/names_railway_guns"
replace_path="common/units/codenames_operatives"
replace_path="country_metadata"
replace_path="events"
replace_path="history/countries"
replace_path="history/states"
replace_path="history/units"
replace_path="history/general"
replace_path="map/strategicregions"
replace_path="map"
replace_path="music"
replace_path="gfx/flags"
replace_path="gfx/flags/medium"
replace_path="gfx/flags/small"
replace_path="gfx/train_gfx_database"
replace_path="gfx/interface/equipmentdesigner/graphic_db"
replace_path="gfx/loadingscreens"
supported_version="1.14.*"
path="C:/Users/rocki/OneDrive/Documents/Paradox Interactive/Hearts of Iron IV/mod/aeiou-1886-remaster"