1={3838 }
2={11751 }
3={11590 }
4={6690 }
5={11386 }
6={6560 }
7={68 }
8={6583 }
9={9421 }
10={3544 }
11={327 }
12={11302 }
13={83 }
14={6548 }
15={9578 }
16={9725 }
17={6698 }
18={6545 }
19={6762 }
20={641 }
21={11875 }
22={6962 }
23={655 }
24={3493 }
25={9751 }
26={590 }
27={11628 }
28={1346 }
29={11548 }
30={3495 }
31={12169 }
32={780 }
33={651 }
34={9444 }
35={11562 }
36={6286 }
37={6287 }
38={11129 }
39={11598 }
40={1779 }
41={3938 }
42={9575 }
43={716 }
44={3884 }
45={3623 }
46={674 }
47={976 }
48={949 }
49={6908 }
50={519 }
51={6570 }
52={6693 }
53={3541 }
54={9572 }
55={3397 }
56={336 }
57={6535 }
58={6257 }
59={6263 }
60={6524 }
61={11276 }
62={3340 }
63={6334 }
64={6521 }
65={3535 }
66={9470 }
67={11467 }
68={3572 }
69={424 }
70={3484 }
71={3550 }
72={9551 }
73={9563 }
74={3583 }
75={11511 }
76={11676 }
77={11597 }
78={9683 }
79={3741 }
80={577 }
81={3645 }
82={11592 }
83={9640 }
84={676 }
85={362 }
86={6558 }
87={9546 }
88={11398 }
89={11550 }
90={11532 }
91={11479 }
92={6484 }
93={513 }
94={3256 }
95={6359 }
96={11391 }
97={11301 }
98={9290 }
99={6364 }
100={4861 }
101={10245 }
102={9596 }
103={984 }
104={11872 }
105={9821 }
106={6886 }
107={3609 }
108={11887 }
109={9595 }
110={6115 }
111={6009 }
112={799 }
113={3342 }
114={11824 }
115={1156 }
116={12003 }
117={3958 }
118={4135 }
119={385 }
120={6104 }
121={9392 }
122={253 }
123={3463 }
124={6258 }
125={11253 }
126={11374 }
127={13070 }
128={7239 }
129={364 }
130={9332 }
131={11299 }
132={6318 }
133={3273 }
134={9255 }
135={9284 }
136={11055 }
137={6724 }
138={11376 }
139={11231 }
140={6406 }
141={6164 }
142={6145 }
143={3022 }
144={9126 }
145={9228 }
146={6150 }
147={197 }
148={203 }
149={6141 }
150={141 }
151={661 }
152={3684 }
153={11618 }
154={11646 }
155={682 }
156={9990 }
157={925 }
158={11730 }
159={6661 }
160={11584 }
161={9752 }
162={910 }
163={3943 }
164={10007 }
165={9797 }
166={6901 }
167={6906 }
168={9903 }
169={7183 }
170={9925 }
171={11692 }
172={9857 }
173={9979 }
174={726 }
175={3953 }
176={885 }
177={9793 }
178={13071 }
179={3866 }
180={6921 }
181={6996 }
182={9940 }
183={7193 }
184={11774 }
185={9916 }
186={4078 }
187={6550 }
188={3288 }
189={9731 }
190={3194 }
191={9221 }
192={11703 }
193={6508 }
194={6232 }
195={149 }
196={737 }
197={574 }
198={9423 }
199={3457 }
200={3767 }
201={6593 }
202={525 }
203={488 }
204={331 }
205={11235 }
206={11322 }
207={9323 }
208={181 }
209={11097 }
210={9353 }
211={649 }
212={6952 }
213={3012 }
214={9041 }
215={134 }
216={2994 }
217={498 }
218={9417 }
219={6414 }
220={3580 }
221={6554 }
222={11368 }
223={3292 }
224={3364 }
225={522 }
226={9463 }
227={6474 }
228={6519 }
229={1610 }
230={6642 }
231={772 }
232={7624 }
233={3698 }
234={6768 }
235={11696 }
236={6486 }
237={11706 }
238={3779 }
239={9564 }
240={6481 }
241={9247 }
242={6387 }
243={11336 }
244={6095 }
245={509 }
246={9265 }
247={6122 }
248={9122 }
249={3214 }
250={3276 }
251={11377 }
252={6327 }
253={280 }
254={269 }
255={6248 }
256={9244 }
257={340 }
258={6398 }
259={11504 }
260={510 }
261={6855 }
262={11182 }
263={6154 }
264={9107 }
265={11512 }
266={7602 }
267={7519 }
268={4985 }
269={8094 }
270={1280 }
271={8036 }
272={12710 }
273={1994 }
274={8039 }
275={5106 }
276={6630 }
277={1965 }
278={12394 }
279={8194 }
280={8175 }
281={4967 }
282={7016 }
283={531 }
284={4748 }
285={7471 }
286={1400 }
287={8042 }
288={1296 }
289={10250 }
290={12087 }
291={7994 }
292={12813 }
293={4924 }
294={2018 }
295={12945 }
296={12891 }
297={8244 }
298={7959 }
299={13292 }
300={12336 }
301={2152 }
302={12930 }
303={12997 }
304={7630 }
305={10888 }
306={2079 }
307={7968 }
308={7123 }
309={10906 }
310={4934 }
311={2077 }
312={8017 }
313={10886 }
314={12823 }
315={10498 }
316={13087 }
317={2075 }
318={4641 }
319={7660 }
320={10149 }
321={1273 }
322={2093 }
323={10825 }
324={8010 }
325={1172 }
326={10062 }
327={12236 }
328={9913 }
329={10627 }
330={4801 }
331={12680 }
332={1785 }
333={4396 }
334={12955 }
335={1209 }
336={12144 }
337={13003 }
338={6221 }
339={6992 }
340={11867 }
341={849 }
342={12013 }
343={3983 }
344={3889 }
345={7026 }
346={940 }
347={904 }
348={9830 }
349={3950 }
350={4512 }
351={11095 }
352={864 }
353={11797 }
354={789 }
355={960 }
356={6938 }
357={12221 }
358={9754 }
359={3863 }
360={6885 }
361={6929 }
362={9779 }
363={11783 }
364={10029 }
365={9996 }
366={12752 }
367={4756 }
368={7791 }
369={4402 }
370={10753 }
371={4507 }
372={4625 }
373={12463 }
374={11802 }
375={5061 }
376={10914 }
377={10573 }
378={11763 }
379={7756 }
380={1756 }
381={12633 }
382={1738 }
383={1753 }
384={4830 }
385={1414 }
386={7386 }
387={10602 }
388={4741 }
389={4759 }
390={7862 }
391={9880 }
392={1678 }
393={9684 }
394={4738 }
395={720 }
396={9810 }
397={4298 }
398={11195 }
399={7359 }
400={9146 }
401={9447 }
402={4581 }
403={10659 }
404={12397 }
405={7682 }
406={11455 }
407={11480 }
408={3739 }
409={3756 }
410={2070 }
411={12756 }
412={10881 }
413={5089 }
414={12852 }
415={1948 }
416={1888 }
417={1982 }
418={8009 }
419={2071 }
420={4901 }
421={5098 }
422={4219 }
423={12247 }
424={7297 }
425={7395 }
426={12490 }
427={4472 }
428={4064 }
429={4353 }
430={9993 }
431={4204 }
432={10090 }
433={1199 }
434={1116 }
435={12035 }
436={7430 }
437={8076 }
438={4045 }
439={11955 }
440={10066 }
441={12884 }
442={12763 }
443={10108 }
444={5075 }
445={5105 }
446={1155 }
447={7164 }
448={7066 }
449={10117 }
450={4120 }
451={7082 }
452={11967 }
453={1112 }
454={1086 }
455={4591 }
456={7073 }
457={12889 }
458={1046 }
459={12760 }
460={7065 }
461={7100 }
462={8046 }
463={7855 }
464={7361 }
465={634 }
466={3208 }
467={4790 }
468={4417 }
469={736 }
470={6754 }
471={1411 }
472={2407 }
473={7853 }
474={12715 }
475={1900 }
476={2021 }
477={12810 }
478={13089 }
479={5015 }
480={2060 }
481={8057 }
482={8097 }
483={10765 }
484={13215 }
485={10832 }
486={2007 }
487={12973 }
488={10879 }
489={4526 }
490={13289 }
491={10970 }
492={2210 }
493={12790 }
494={8160 }
495={10934 }
496={10360 }
497={5220 }
498={2175 }
499={8242 }
500={10980 }
501={10513 }
502={4604 }
503={12466 }
504={12951 }
505={12987 }
506={13301 }
507={5215 }
508={8195 }
509={8255 }
510={10943 }
511={2215 }
512={12321 }
513={7149 }
514={1901 }
515={10917 }
516={13064 }
517={2130 }
518={12645 }
519={12924 }
520={12339 }
521={12424 }
522={5175 }
523={12123 }
524={12068 }
525={7175 }
526={11932 }
527={11828 }
528={10020 }
529={11985 }
530={11997 }
531={1051 }
532={7087 }
533={11847 }
534={10128 }
535={7217 }
536={12493 }
537={1820 }
538={10951 }
539={5139 }
540={7548 }
541={2207 }
542={1580 }
543={5222 }
544={8245 }
545={4851 }
546={2196 }
547={2066 }
548={12929 }
549={8084 }
550={5091 }
551={4961 }
552={12816 }
553={792 }
554={7184 }
555={1515 }
556={5045 }
557={7992 }
558={2050 }
559={2063 }
560={7871 }
561={1730 }
562={1714 }
563={4705 }
564={10524 }
565={12538 }
566={1707 }
567={1735 }
568={12628 }
569={7757 }
570={4734 }
571={10626 }
572={1292 }
573={11223 }
574={7844 }
575={13059 }
576={7707 }
577={4817 }
578={7789 }
579={7738 }
580={7768 }
581={12502 }
582={4383 }
583={10140 }
584={7635 }
585={7507 }
586={1840 }
587={7641 }
588={4867 }
589={4651 }
590={7298 }
591={994 }
592={1087 }
593={1202 }
594={4023 }
595={4053 }
596={7086 }
597={10043 }
598={7200 }
599={10404 }
600={9984 }
601={5102 }
602={7159 }
603={7521 }
604={7940 }
605={12705 }
606={10040 }
607={7129 }
608={11761 }
609={3830 }
610={6937 }
611={828 }
612={12348 }
613={10076 }
614={11996 }
615={10367 }
616={8081 }
617={4682 }
618={7693 }
619={5087 }
620={1612 }
621={12331 }
622={1458 }
623={4368 }
624={1372 }
625={1340 }
626={7419 }
627={12217 }
628={7423 }
629={12021 }
630={13051 }
631={13052 }
632={13047 }
633={13046 }
634={10291 }
635={7264 }
636={7302 }
637={1823 }
638={12140 }
639={13022 }
640={1607 }
641={12148 }
642={13050 }
643={13056 }
644={12592 }
645={13025 }
646={13024 }
647={12103 }
648={13026 }
649={5023 }
650={13067 }
651={10142 }
652={1210 }
653={12696 }
654={10713 }
655={855 }
656={8085 }
657={675 }
658={2048 }
659={12821 }
660={3165 }
661={11940 }
662={8069 }
663={1186 }
664={3716 }
665={10082 }
666={9083 }
667={10175 }
668={1419 }
669={1602 }
670={10195 }
671={9948 }
672={12181 }
673={10222 }
674={12992 }
675={4951 }
676={3916 }
677={7140 }
678={8118 }
679={4981 }
680={3942 }
681={4822 }
682={4875 }
683={10721 }
684={13031 }
685={7617 }
686={1440 }
687={4982 }
688={10973 }
689={12304 }
690={10254 }
691={3284 }
692={11106 }
693={10440 }
694={177 }
695={153 }
696={13010 }
697={3118 }
698={1751 }
699={7979 }
700={2094 }
701={4989 }
702={13014 }
703={13013 }
704={13016 }
705={13015 }
706={13017 }
707={13018 }
708={13072 }
709={2188 }
710={13019 }
711={13005 }
712={13002 }
713={2165 }
714={7832 }
715={3978 }
716={6804 }
717={9623 }
718={2154 }
719={7900 }
720={10995 }
721={12178 }
722={9140 }
723={2203 }
724={1394 }
725={13038 }
726={7290 }
727={13049 }
728={11981 }
729={4189 }
730={373 }
731={10163 }
732={5062 }
733={12251 }
734={7390 }
735={3764 }
736={599 }
737={10206 }
738={4579 }
739={1869 }
740={12259 }
741={10134 }
742={12218 }
743={10000 }
744={4256 }
745={1150 }
746={12706 }
747={4559 }
748={10763 }
749={7104 }
750={4896 }
751={1999 }
752={12837 }
753={1257 }
754={12815 }
755={12890 }
756={10899 }
757={8121 }
758={12784 }
759={2074 }
760={12524 }
761={4852 }
762={6464 }
763={395 }
764={6643 }
765={8051 }
766={6743 }
767={10900 }
768={9962 }
769={2220 }
770={13209 }
771={10594 }
772={3109 }
773={5036 }
774={1473 }
775={4902 }
776={10919 }
777={12843 }
778={7950 }
779={5013 }
780={4957 }
781={1975 }
782={1115 }
783={12857 }
784={3320 }
785={11549 }
786={8035 }
787={10821 }
788={9770 }
789={875 }
790={13218 }
791={9872 }
792={6756 }
793={3891 }
794={11793 }
795={11768 }
796={2115 }
797={11829 }
798={3862 }
799={12029 }
800={4583 }
801={6842 }
802={9849 }
803={11857 }
804={6942 }
805={914 }
806={9710 }
807={389 }
808={10323 }
809={3255 }
810={319 }
811={6201 }
812={567 }
813={11057 }
814={3272 }
815={11226 }
816={801 }
817={12544 }
818={7843 }
819={1868 }
820={1834 }
821={3672 }
822={4744 }
823={13207 }
824={12545 }
825={198 }
826={11647 }
827={11614 }
828={9647 }
829={6575 }
830={7775 }
831={12454 }
832={1493 }
833={6372 }
834={754 }
835={13249 }
836={4995 }
837={13246 }
838={7912 }
839={12856 }
840={13242 }
841={2040 }
842={13238 }
843={5097 }
844={11014 }
845={9638 }
846={3641 }
847={3612 }
848={6680 }
849={11837 }
850={9598 }
851={911 }
852={11735 }
853={9627 }
854={10901 }
855={12101 }
856={8073 }
857={5058 }
858={5006 }
859={1955 }
860={7807 }
861={4666 }
862={11682 }
863={12223 }
864={7869 }
865={6779 }
866={761 }
867={7782 }
868={10425 }
869={4496 }
870={5207 }
871={12962 }
872={12367 }
873={10941 }
874={10540 }
875={13254 }
876={3184 }
877={12549 }
878={12687 }
879={11071 }
880={11042 }
881={4389 }
882={4685 }
883={2003 }
884={10877 }
885={10764 }
886={4918 }
887={10857 }
888={8016 }
889={12795 }
890={7161 }
891={4735 }
892={12958 }
893={7605 }
894={10957 }
895={12519 }
896={12950 }
897={2202 }
898={7930 }
899={10812 }
900={1992 }
901={8109 }
902={4938 }
903={12927 }
904={10860 }
905={5210 }
906={8000 }
907={992 }
908={5041 }
909={11366 }
910={6361 }
911={13260 }
912={332 }
913={9393 }
914={13272 }
915={171 }
916={3005 }
917={113 }
918={109 }
919={9218 }
920={133 }
921={9036 }
922={6072 }
923={6071 }
924={6079 }
925={11077 }
926={3009 }
927={11172 }
928={6082 }
929={6212 }
930={9056 }
931={219 }
932={3311 }
933={6196 }
934={11762 }
935={2132 }
936={5182 }
937={5153 }
938={13274 }
939={4980 }
940={13279 }
941={13282 }
942={13283 }
943={2153 }
944={2109 }
945={1654 }
946={1626 }
947={13287 }
948={13294 }
949={2161 }
950={12920 }
951={5131 }
952={12914 }
953={13300 }
954={2169 }
955={8161 }
956={8208 }
957={12943 }
958={11022 }
959={13311 }
960={12928 }
961={12919 }
962={13330 }
963={10960 }
964={5216 }
965={2147 }
966={8172 }
967={13285 }
968={5008 }
969={13361 }
