
state={
	id=133
	name="STATE_133" # Lanark
	manpower = 2257723
	
	state_category = city
	
	resources={
		#steel=21 # was: 36
	}

	history={
		owner = SCO
		victory_points = {
			3273 15
		}
		victory_points = {
			11218 1 #Dumfries
		}
		buildings = {
			infrastructure = 4 #was: 7
			industrial_complex = 1
			dockyard = 4
			6395 = {
				naval_base = 2
			}

		}
		add_core_of = SCO
	}

	provinces={
		3273 6320 6350 6385 6395 9237 9350 11218 
	}

	local_supplies=0.0 
}
