state={
	id=175
	name="STATE_175"

	history={
		owner = TST
		victory_points = {
			6832 1 
		}
		buildings = {
			industrial_complex = 1
			infrastructure = 3 #was: 6

		}
		add_core_of = TST

	}

	provinces={
		3953 6800 6832 6896 9778 9828 9881 11863 12081 13229 
	}
	manpower=526903
	buildings_max_level_factor=1.000
	state_category=rural

	local_supplies=11.0 
}
