
state={
	id=19
	name="STATE_19"
	resources={
		#steel=14 #was 25
		#aluminium=11
	}

	history={
		owner = TST
		victory_points = {
			9737 20 
		}
		buildings = {
			infrastructure = 3
			arms_factory = 1
			dockyard = 1
			air_base = 3
			9737 = {
				naval_base = 3
				coastal_bunker = 1

			}

		}
		add_core_of = TST

	}

	provinces={
		6621 6762 6777 9737 11565 
	}
	manpower=1140400
	buildings_max_level_factor=1.000
	state_category=city

	local_supplies=0.0 
}
