
state={
	id=259
	name="STATE_259" # Poltava
	manpower = 1442584
	
	state_category = rural

	history={
		victory_points = {
			11504 3
		}
		owner = TST
		buildings = {
			infrastructure = 3 #was: 5
		}
		add_core_of = TST
		add_core_of = TST
	}

	provinces={
		511 559 3557 6495 6507 6578 6605 9413 9519 11504 
	}

	local_supplies=10.0 
}
