state=
{
	id=326
	name="STATE_326"
	manpower = 1143516
	state_category = large_town
	history=
	{
		owner = TST
		add_core_of = TST
		add_core_of = TST
		victory_points = {
			10062 3 
		}
		buildings = {
			infrastructure = 3 #was: 5
			air_base = 1
			10062 = {
				naval_base = 6
				coastal_bunker = 1
			}
		}
	}
	provinces={
		10062
	}

	local_supplies=0.0 
}
