
state={
	id=33
	name="STATE_33"
	manpower = 636400
	
	state_category = town

	history={
		victory_points = {
			651 1
		}
		owner = TST
		
		buildings = {
			infrastructure = 3
		}
		add_core_of = TST
	}

	provinces={
		651 669 3621 3626 3655 6648 6651 9629 11869 
	}

	local_supplies=0.0 
}
