
state={
	id=345
	name="STATE_345"

	history={
		owner = TST
		victory_points = {
			10056 1 
		}
		victory_points = {
			11810 5 
		}
		buildings = {
			infrastructure = 2

		}
		add_core_of = TST

	}

	provinces={
		1122 4008 4124 4127 7026 7143 10056 11810 
	}
	manpower=411798
	buildings_max_level_factor=1.000
	state_category=rural

	local_supplies=0.0 
}
