
state={
	id=512
	name="STATE_512"
	resources={
		#oil=5.000
	}

	history={
		owner = TST
		buildings = {
			infrastructure = 2
	
		}
		add_core_of = TST

	}

	provinces={
		2149 2199 8192 10935 10981 12306 12321 12349 12494 12982 
	}
	manpower=226638
	buildings_max_level_factor=1.000
	state_category=rural
	local_supplies=0.000
}
