state={
	id=548
	name="STATE_548"

	state_category = rural
	resources={
		#rubber=3 # was: 4
	}
	history={
		owner = TST
		buildings = {
			infrastructure = 2

		}
		add_core_of = UGA
		victory_points = {
			12989 1
		}
	}

	provinces={
		3854 7088 7133 8223 12929 12989 13177 
	}
	manpower=3515625
	buildings_max_level_factor=1.000

	local_supplies=0.0 
}
