
state={
	id=565
	name="STATE_565" # Bodaybo
	manpower = 195325
	state_category = rural
	resources={
		#steel=10 # was: 32
		#chromium=5 # was: 12
	}

	history={
		owner = TST
		buildings = {
			infrastructure = 1
		}
		add_core_of = TST
	}

	provinces={
		1666 1761 4762 4795 4868 7759 7854 10583 10654 12538  
	}

	local_supplies=5.0 
}
