state={
	id=586
	name="STATE_586"
	resources={
		#steel=20.000
		#chromium=12.000
		#tungsten=4.000
		#aluminium=10.000
	}

	history={
		owner = TST
		add_core_of = TST
		buildings = {
			infrastructure = 2
			industrial_complex = 3

		}
		victory_points = {
			1591 3 
		}
		add_core_of = TST
		1939.1.1 = {
			buildings = {
				industrial_complex = 4

			}

		}

	}

	provinces={
		1591 1840 4773 4845 7706 10146 10547 10603 12640 12658 
	}
	manpower=2563404
	buildings_max_level_factor=1.000
	state_category=city

	local_supplies=2.0 
}
