
state={
	id=660
	name="STATE_660"
	manpower = 1136921
	
	state_category = pastoral
	resources={
		#rubber=3 # was: 4
	}
	history={
		owner = TST
		add_core_of = CAR
		victory_points = {
			12830 1
		}
		buildings = {
			infrastructure = 1
		}

	}

	provinces={
		1974 3165 5084 8078 11108 12719 12830 11012
	}

	local_supplies=2.0 
}
