
state={
	id=67
	name="STATE_67"
	manpower = 1402591
	resources={
		#steel=8 #was 11 #was: 11 was 19 # was: 60
		#aluminium=6 # was: 20
	}
	
	state_category = city

	history={
		victory_points = {
			11467 5
		}
		victory_points = {
			9511 3
		}
		owner = TST
		buildings = {
			infrastructure = 3
		}
		add_core_of = TST
		add_core_of = SIL
	}

	provinces={
		479 6512 9457 9511 11467 
	}

	local_supplies=4.0 
}
