state={
	id=746
	name="STATE_746"
	provinces={
		1959 3427 4960 4986 10451 10854 12706 
	}
	state_category = pastoral
	
	
	history=
	{
		owner = TST
		add_core_of = TST
		add_core_of = TST
		add_core_of = TST
		add_core_of = TST
		
		buildings = {
			infrastructure = 1
		}

		1938.10.25 = {
			controller = TST
		}
		
		1939.1.1 = {
			
			owner = TST
			controller = TST

		}
	}
	manpower=500000
	buildings_max_level_factor=1.000

	local_supplies=0.0 
}
