state={
	id=748
	name="STATE_748"
	provinces={
		1010 4141 4325 4431 9939 10763 11972 
	}
	history={
		owner = TST
		add_core_of = TST
		add_core_of = TST
		buildings = {
			infrastructure = 1

		}
		victory_points = {
			1010 3
		}
		1939.1.1 = {
			buildings = {
				infrastructure = 2
				air_base = 1
			}
		}
	}
	manpower=1500000
	state_category=pastoral
	buildings_max_level_factor=1.000

	local_supplies=0.0 
}
