state=
{
	id=766
	name="STATE_766"
	manpower = 566600
	
	state_category = rural
	
	history= {
		victory_points = {
			6727 1
		}
	
		add_core_of = TST
		owner = TST
		buildings = {
			infrastructure = 2
			dockyard = 1
			6727 = {
				naval_base = 3
			}
		}
		add_core_of = TST
	}
	provinces=
	{
3701 3704 6727 6743	}

	local_supplies=0.0 
}
