state={
	id=80
	name="STATE_80"
	manpower = 474600
	
	state_category = rural
	
	history=
	{
		victory_points = {
			577 1 
		}
		owner = TST
		buildings = {
			infrastructure = 3
			arms_factory = 1
		}
		add_core_of = TST
		add_core_of = TST
	}
	provinces={
		577 9548
	}

	local_supplies=0.0 
}
