state = {
	id = 919
	name = "STATE_919"
	manpower = 296653
	state_category = rural
	resources = {
		#steel = 4
	}

	history = {
		owner = TST
		add_core_of = TST
		victory_points = {
			11114 1 
		}
		
		buildings = {
			infrastructure = 2
		}
		

	}


	provinces = {
		69 147 3128 3141 6028 6195 9054 9138 9218 11114 
	}
	

	local_supplies=0.000
}
