
#state={
#	id=971
#	name="STATE_971" # Franche-Comte
#	manpower = 877800
#	
#	state_category = town
#
#	history={
#		owner = FRC
#		victory_points = {
#			9642 5 
#		}
#		buildings = {
#			infrastructure = 3
#			industrial_complex = 1
#
#		}
#		add_core_of = FRC
#	}
#
#	provinces={
#		9642 3666 3646 698 6698 6668
#	}
#
#	local_supplies=6.0 
#}
